%!PS-Adobe-3.0 EPSF-3.0
%%Title: 2D-2level-SR-regions.fig
%%Creator: fig2dev Version 3.2 Patchlevel 5d
%%CreationDate: Wed Jun 25 16:26:00 2014
%%For: markadams@rfc-1918-host (adams)
%%BoundingBox: 0 0 1050 539
%Magnification: 1.0000
%%EndComments
%%BeginProlog
/MyAppDict 100 dict dup begin def
/$F2psDict 200 dict def
$F2psDict begin
$F2psDict /mtrx matrix put
/col-1 {0 setgray} bind def
/col0 {0.000 0.000 0.000 srgb} bind def
/col1 {0.000 0.000 1.000 srgb} bind def
/col2 {0.000 1.000 0.000 srgb} bind def
/col3 {0.000 1.000 1.000 srgb} bind def
/col4 {1.000 0.000 0.000 srgb} bind def
/col5 {1.000 0.000 1.000 srgb} bind def
/col6 {1.000 1.000 0.000 srgb} bind def
/col7 {1.000 1.000 1.000 srgb} bind def
/col8 {0.000 0.000 0.560 srgb} bind def
/col9 {0.000 0.000 0.690 srgb} bind def
/col10 {0.000 0.000 0.820 srgb} bind def
/col11 {0.530 0.810 1.000 srgb} bind def
/col12 {0.000 0.560 0.000 srgb} bind def
/col13 {0.000 0.690 0.000 srgb} bind def
/col14 {0.000 0.820 0.000 srgb} bind def
/col15 {0.000 0.560 0.560 srgb} bind def
/col16 {0.000 0.690 0.690 srgb} bind def
/col17 {0.000 0.820 0.820 srgb} bind def
/col18 {0.560 0.000 0.000 srgb} bind def
/col19 {0.690 0.000 0.000 srgb} bind def
/col20 {0.820 0.000 0.000 srgb} bind def
/col21 {0.560 0.000 0.560 srgb} bind def
/col22 {0.690 0.000 0.690 srgb} bind def
/col23 {0.820 0.000 0.820 srgb} bind def
/col24 {0.500 0.190 0.000 srgb} bind def
/col25 {0.630 0.250 0.000 srgb} bind def
/col26 {0.750 0.380 0.000 srgb} bind def
/col27 {1.000 0.500 0.500 srgb} bind def
/col28 {1.000 0.630 0.630 srgb} bind def
/col29 {1.000 0.750 0.750 srgb} bind def
/col30 {1.000 0.880 0.880 srgb} bind def
/col31 {1.000 0.840 0.000 srgb} bind def

end

% left30
<<
 /PatternType 1
 /PaintType 2
 /TilingType 2
 /BBox [-2 -4 10 5]
 /XStep 8
 /YStep 4
 /PaintProc
 {
  pop
  newpath
  .7 setlinewidth
  -2 -1 moveto
  12 6 rlineto
  stroke
 } bind

>>

matrix
makepattern
/P1 exch def

% crosshatch45
<<
 /PatternType 1
 /PaintType 2
 /TilingType 2
 /BBox [-1 -1 9 9] 
 /XStep 8
 /YStep 8
 /PaintProc
 {
  pop
  newpath
  1 setlinewidth
  -1 9 moveto
  9 -1 lineto
  stroke
  -1 -1 moveto
  9 9 lineto
  stroke
 } bind

>>

matrix
makepattern
/P6 exch def

/cp {closepath} bind def
/ef {eofill} bind def
/gr {grestore} bind def
/gs {gsave} bind def
/sa {save} bind def
/rs {restore} bind def
/l {lineto} bind def
/m {moveto} bind def
/rm {rmoveto} bind def
/n {newpath} bind def
/s {stroke} bind def
/sh {show} bind def
/slc {setlinecap} bind def
/slj {setlinejoin} bind def
/slw {setlinewidth} bind def
/srgb {setrgbcolor} bind def
/rot {rotate} bind def
/sc {scale} bind def
/sd {setdash} bind def
/ff {findfont} bind def
/sf {setfont} bind def
/scf {scalefont} bind def
/sw {stringwidth} bind def
/tr {translate} bind def
/tnt {dup dup currentrgbcolor
  4 -2 roll dup 1 exch sub 3 -1 roll mul add
  4 -2 roll dup 1 exch sub 3 -1 roll mul add
  4 -2 roll dup 1 exch sub 3 -1 roll mul add srgb}
  bind def
/shd {dup dup currentrgbcolor 4 -2 roll mul 4 -2 roll mul
  4 -2 roll mul srgb} bind def
/$F2psBegin {$F2psDict begin /$F2psEnteredState save def} def
/$F2psEnd {$F2psEnteredState restore end} def

/pageheader {
save
newpath 0 539 moveto 0 0 lineto 1050 0 lineto 1050 539 lineto closepath clip newpath
0.7 583.4 translate
1 -1 scale
$F2psBegin
10 setmiterlimit
0 slj 0 slc
 0.06000 0.06000 sc
} bind def
/pagefooter {
$F2psEnd
restore
} bind def
%%EndProlog
pageheader
%
% Fig objects follow
%
% 
% here starts figure with depth 56
% Polyline
0 slj
0 slc
30.000 slw
n 3600 2400 m 7200 2400 l 7200 6000 l 3600 6000 l
 cp 
% Fill with pattern background color
gs /DeviceRGB setcolorspace 1.00 1.00 1.00 setcolor fill gr

% Fill with pattern pen color
gs /DeviceRGB setcolorspace 0.00 0.00 0.00 P6 setpattern fill gr

gs col0 s gr 
% here ends figure;
% 
% here starts figure with depth 52
% Polyline
0 slj
0 slc
7.500 slw
n 6000 3600 m 6600 3600 l 6600 4200 l 6000 4200 l
 cp gs col0 s gr 
% Polyline
n 2400 7200 m 7200 7200 l 7200 7800 l 2400 7800 l
 cp 
% Fill with pattern background color
gs /DeviceRGB setcolorspace 1.00 1.00 1.00 setcolor fill gr

% Fill with pattern pen color
gs /DeviceRGB setcolorspace 0.00 0.00 0.00 P1 setpattern fill gr

gs col0 s gr 
% Polyline
n 6000 3000 m 6600 3000 l 6600 3600 l 6000 3600 l
 cp gs col0 s gr 
% Polyline
n 6000 2400 m 6600 2400 l 6600 3000 l 6000 3000 l
 cp gs col0 s gr 
% Polyline
n 1800 2400 m 2400 2400 l 2400 7800 l 1800 7800 l
 cp 
% Fill with pattern background color
gs /DeviceRGB setcolorspace 1.00 1.00 1.00 setcolor fill gr

% Fill with pattern pen color
gs /DeviceRGB setcolorspace 0.00 0.00 0.00 P1 setpattern fill gr

gs col0 s gr 
% Polyline
n 3600 2400 m 4200 2400 l 4200 3000 l 3600 3000 l
 cp gs col0 s gr 
% Polyline
n 6000 3000 m 6600 3000 l 6600 3600 l 6000 3600 l
 cp gs col0 s gr 
% Polyline
n 3600 4800 m 4200 4800 l 4200 5400 l 3600 5400 l
 cp gs col0 s gr 
% Polyline
n 4200 5400 m 4800 5400 l 4800 6000 l 4200 6000 l
 cp gs col0 s gr 
% Polyline
n 5400 4800 m 6000 4800 l 6000 5400 l 5400 5400 l
 cp gs col0 s gr 
% Polyline
n 4800 4200 m 5400 4200 l 5400 4800 l 4800 4800 l
 cp gs col0 s gr 
% Polyline
n 4800 4800 m 5400 4800 l 5400 5400 l 4800 5400 l
 cp gs col0 s gr 
% Polyline
n 5400 5400 m 6000 5400 l 6000 6000 l 5400 6000 l
 cp gs col0 s gr 
% Polyline
n 4200 3000 m 4800 3000 l 4800 3600 l 4200 3600 l
 cp gs col0 s gr 
% Polyline
n 3600 3600 m 4200 3600 l 4200 4200 l 3600 4200 l
 cp gs col0 s gr 
% Polyline
n 6600 4200 m 7200 4200 l 7200 4800 l 6600 4800 l
 cp gs col0 s gr 
% Polyline
n 6000 4800 m 6600 4800 l 6600 5400 l 6000 5400 l
 cp gs col0 s gr 
% Polyline
n 3600 6000 m 4200 6000 l 4200 6600 l 3600 6600 l
 cp gs col0 s gr 
% Polyline
n 4200 6600 m 4800 6600 l 4800 7200 l 4200 7200 l
 cp gs col0 s gr 
% Polyline
n 4800 6000 m 5400 6000 l 5400 6600 l 4800 6600 l
 cp gs col0 s gr 
% Polyline
n 5400 6600 m 6000 6600 l 6000 7200 l 5400 7200 l
 cp gs col0 s gr 
% Polyline
n 6000 6000 m 6600 6000 l 6600 6600 l 6000 6600 l
 cp gs col0 s gr 
% Polyline
n 6600 6600 m 7200 6600 l 7200 7200 l 6600 7200 l
 cp gs col0 s gr 
% Polyline
n 6600 5400 m 7200 5400 l 7200 6000 l 6600 6000 l
 cp gs col0 s gr 
% Polyline
 [45] 0 sd
n 10200 2400 m 10800 2400 l 10800 3000 l 10200 3000 l
 cp gs col0 s gr  [] 0 sd
% Polyline
15.000 slw
 [45] 0 sd
n 10200 1200 m 10800 1200 l 10800 1800 l 10200 1800 l
 cp gs col0 s gr  [] 0 sd
% Polyline
60.000 slw
 [15 45] 45 sd
n 10200 4800 m 10800 4800 l 10800 5400 l 10200 5400 l
 cp gs col0 s gr  [] 0 sd
% Polyline
30.000 slw
n 10200 6000 m 10800 6000 l 10800 6600 l 10200 6600 l
 cp 
% Fill with pattern background color
gs /DeviceRGB setcolorspace 1.00 1.00 1.00 setcolor fill gr

% Fill with pattern pen color
gs /DeviceRGB setcolorspace 0.00 0.00 0.00 P6 setpattern fill gr

gs col0 s gr 
% Polyline
7.500 slw
n 5400 3000 m 6000 3000 l 6000 3600 l 5400 3600 l
 cp gs col0 s gr 
% Polyline
n 4800 3600 m 5400 3600 l 5400 4200 l 4800 4200 l
 cp gs col0 s gr 
% Polyline
n 5400 4200 m 6000 4200 l 6000 4800 l 5400 4800 l
 cp gs col0 s gr 
% Polyline
n 6600 3000 m 7200 3000 l 7200 3600 l 6600 3600 l
 cp gs col0 s gr 
% Polyline
n 4800 2400 m 5400 2400 l 5400 3000 l 4800 3000 l
 cp gs col0 s gr 
% Polyline
n 1200 7200 m 2400 7200 l 2400 8400 l 1200 8400 l
 cp gs col0 s gr 
% Polyline
n 1200 3600 m 2400 3600 l 2400 4800 l 1200 4800 l
 cp gs col0 s gr 
% Polyline
n 1200 6000 m 2400 6000 l 2400 7200 l 1200 7200 l
 cp gs col0 s gr 
% Polyline
n 2400 7200 m 3600 7200 l 3600 8400 l 2400 8400 l
 cp gs col0 s gr 
% Polyline
60.000 slw
n 2400 2400 m 7200 2400 l 7200 7200 l 2400 7200 l
 cp gs col0 s gr 
% Polyline
n 10200 3600 m 10800 3600 l 10800 4200 l 10200 4200 l
 cp gs col0 s gr 
% Polyline
7.500 slw
 [45] 0 sd
n 0 1200 m 8400 1200 l 8400 9600 l 0 9600 l
 cp gs col0 s gr  [] 0 sd
% Polyline
 [60] 0 sd
n 0 1200 m 1200 1200 l 1200 2400 l 0 2400 l
 cp gs col0 s gr  [] 0 sd
% Polyline
 [60] 0 sd
n 0 3600 m 1200 3600 l 1200 4800 l 0 4800 l
 cp gs col0 s gr  [] 0 sd
% Polyline
 [60] 0 sd
n 0 6000 m 1200 6000 l 1200 7200 l 0 7200 l
 cp gs col0 s gr  [] 0 sd
% Polyline
 [60] 0 sd
n 0 8400 m 1200 8400 l 1200 9600 l 0 9600 l
 cp gs col0 s gr  [] 0 sd
% Polyline
 [60] 0 sd
n 2400 8400 m 3600 8400 l 3600 9600 l 2400 9600 l
 cp gs col0 s gr  [] 0 sd
% Polyline
 [60] 0 sd
n 7200 8400 m 8400 8400 l 8400 9600 l 7200 9600 l
 cp gs col0 s gr  [] 0 sd
% Polyline
 [60] 0 sd
n 2400 1200 m 3600 1200 l 3600 2400 l 2400 2400 l
 cp gs col0 s gr  [] 0 sd
% Polyline
 [60] 0 sd
n 4800 1200 m 6000 1200 l 6000 2400 l 4800 2400 l
 cp gs col0 s gr  [] 0 sd
% Polyline
 [60] 0 sd
n 7200 1200 m 8400 1200 l 8400 2400 l 7200 2400 l
 cp gs col0 s gr  [] 0 sd
% Polyline
 [60] 0 sd
n 7200 3600 m 8400 3600 l 8400 4800 l 7200 4800 l
 cp gs col0 s gr  [] 0 sd
% Polyline
 [60] 0 sd
n 7200 6000 m 8400 6000 l 8400 7200 l 7200 7200 l
 cp gs col0 s gr  [] 0 sd
% Polyline
15.000 slw
 [45] 0 sd
n 2400 1800 m 3000 1800 l 3000 2400 l 2400 2400 l
 cp gs col0 s gr  [] 0 sd
% Polyline
 [45] 0 sd
n 3600 1800 m 4200 1800 l 4200 2400 l 3600 2400 l
 cp gs col0 s gr  [] 0 sd
% Polyline
 [45] 0 sd
n 4800 1800 m 5400 1800 l 5400 2400 l 4800 2400 l
 cp gs col0 s gr  [] 0 sd
% Polyline
 [45] 0 sd
n 6000 1800 m 6600 1800 l 6600 2400 l 6000 2400 l
 cp gs col0 s gr  [] 0 sd
% Polyline
 [45] 0 sd
n 7200 1800 m 7800 1800 l 7800 2400 l 7200 2400 l
 cp gs col0 s gr  [] 0 sd
% Polyline
 [45] 0 sd
n 7200 3000 m 7800 3000 l 7800 3600 l 7200 3600 l
 cp gs col0 s gr  [] 0 sd
% Polyline
 [45] 0 sd
n 7200 4200 m 7800 4200 l 7800 4800 l 7200 4800 l
 cp gs col0 s gr  [] 0 sd
% Polyline
 [45] 0 sd
n 7200 5400 m 7800 5400 l 7800 6000 l 7200 6000 l
 cp gs col0 s gr  [] 0 sd
% Polyline
 [45] 0 sd
n 7200 6600 m 7800 6600 l 7800 7200 l 7200 7200 l
 cp gs col0 s gr  [] 0 sd
% Polyline
 [45] 0 sd
n 3000 7200 m 3600 7200 l 3600 7800 l 3000 7800 l
 cp gs col0 s gr  [] 0 sd
% Polyline
 [45] 0 sd
n 1800 7200 m 2400 7200 l 2400 7800 l 1800 7800 l
 cp gs col0 s gr  [] 0 sd
% Polyline
 [45] 0 sd
n 1800 6000 m 2400 6000 l 2400 6600 l 1800 6600 l
 cp gs col0 s gr  [] 0 sd
% Polyline
 [45] 0 sd
n 1800 4800 m 2400 4800 l 2400 5400 l 1800 5400 l
 cp gs col0 s gr  [] 0 sd
% Polyline
7.500 slw
n 3000 4200 m 3600 4200 l 3600 4800 l 3000 4800 l
 cp gs col0 s gr 
% Polyline
n 1200 4800 m 2400 4800 l 2400 6000 l 1200 6000 l
 cp gs col0 s gr 
% Polyline
n 3600 7200 m 4800 7200 l 4800 8400 l 3600 8400 l
 cp gs col0 s gr 
% Polyline
n 4800 7200 m 6000 7200 l 6000 8400 l 4800 8400 l
 cp gs col0 s gr 
% Polyline
 [60] 0 sd
n 4800 8400 m 6000 8400 l 6000 9600 l 4800 9600 l
 cp gs col0 s gr  [] 0 sd
% Polyline
15.000 slw
 [45] 0 sd
n 4200 7200 m 4800 7200 l 4800 7800 l 4200 7800 l
 cp gs col0 s gr  [] 0 sd
% Polyline
 [45] 0 sd
n 5400 7200 m 6000 7200 l 6000 7800 l 5400 7800 l
 cp gs col0 s gr  [] 0 sd
% Polyline
 [45] 0 sd
n 6600 7200 m 7200 7200 l 7200 7800 l 6600 7800 l
 cp gs col0 s gr  [] 0 sd
% Polyline
7.500 slw
n 1200 2400 m 2400 2400 l 2400 3600 l 1200 3600 l
 cp gs col0 s gr 
% Polyline
n 2400 2400 m 3000 2400 l 3000 3000 l 2400 3000 l
 cp gs col0 s gr 
% Polyline
15.000 slw
 [45] 0 sd
n 1800 3600 m 2400 3600 l 2400 4200 l 1800 4200 l
 cp gs col0 s gr  [] 0 sd
%  w 
/Symbol ff 500.00 scf sf
15600 7800 m
gs 1 -1 sc (W) col0 sh gr
% Polyline
7.500 slw
n 6000 7200 m 7200 7200 l 7200 8400 l 6000 8400 l
 cp gs col0 s gr 
% Polyline
n 2400 4800 m 3000 4800 l 3000 5400 l 2400 5400 l
 cp gs col0 s gr 
% Polyline
n 2400 6000 m 3000 6000 l 3000 6600 l 2400 6600 l
 cp gs col0 s gr 
% Polyline
n 3000 5400 m 3600 5400 l 3600 6000 l 3000 6000 l
 cp gs col0 s gr 
% Polyline
n 2400 3600 m 3000 3600 l 3000 4200 l 2400 4200 l
 cp gs col0 s gr 
% Polyline
n 3000 3000 m 3600 3000 l 3600 3600 l 3000 3600 l
 cp gs col0 s gr 
% Polyline
n 4200 4200 m 4800 4200 l 4800 4800 l 4200 4800 l
 cp gs col0 s gr 
/Times-Roman ff 400.00 scf sf
11400 4200 m
gs 1 -1 sc (Fine grid compute region      C) col0 sh gr
%  w 
/Symbol ff 500.00 scf sf
15600 4200 m
gs 1 -1 sc (W) col0 sh gr
% Arc
30.000 slw
gs  clippath
7479 2147 m 7245 2308 l 7279 2358 l 7513 2196 l 7513 2196 l 7373 2257 l 7479 2147 l cp
eoclip
n 6990.0 1725.0 664.2 -64.5923 64.5923 arc
gs col0 s gr
 gr

% arrowhead
45.000 slw
n 7479 2147 m 7373 2257 l 7513 2196 l 7471 2188 l 7479 2147 l 
 cp gs 0.00 setgray ef gr  col0 s
% Polyline
7.500 slw
n 3000 6600 m 3600 6600 l 3600 7200 l 3000 7200 l
 cp gs col0 s gr 
% Polyline
15.000 slw
 [45] 0 sd
n 10200 7200 m 10800 7200 l 10800 7800 l 10200 7800 l
 cp 
% Fill with pattern background color
gs /DeviceRGB setcolorspace 1.00 1.00 1.00 setcolor fill gr

% Fill with pattern pen color
gs /DeviceRGB setcolorspace 0.00 0.00 0.00 P1 setpattern fill gr

gs col0 s gr  [] 0 sd
/Times-Roman ff 400.00 scf sf
4425 1050 m
gs 1 -1 sc (Domain boundary) col0 sh gr
/Times-Roman ff 400.00 scf sf
9750 9600 m
gs 1 -1 sc (Corase grid SR buffer size = 2) col0 sh gr
/Times-Roman ff 400.00 scf sf
9750 9000 m
gs 1 -1 sc (Fine grid SR buffer size = 2) col0 sh gr
/Times-Roman ff 400.00 scf sf
11400 5400 m
gs 1 -1 sc (Coarse grid compute region      C) col0 sh gr
/Times-Roman ff 400.00 scf sf
11400 6600 m
gs 1 -1 sc (Genuine region \(same all levels\)      V) col0 sh gr
/Times-Roman ff 400.00 scf sf
11400 7800 m
gs 1 -1 sc (Fine grid SR ghost region      SRG) col0 sh gr
/Times-Roman ff 400.00 scf sf
11400 1800 m
gs 1 -1 sc (Fine grid stencil \(1\) ghost     g) col0 sh gr
%  w 
/Symbol ff 500.00 scf sf
15600 1800 m
gs 1 -1 sc (W) col0 sh gr
/Times-Roman ff 400.00 scf sf
11400 3000 m
gs 1 -1 sc (Coarse grid stencil \(1\) ghost     g) col0 sh gr
%  w 
/Symbol ff 500.00 scf sf
15975 3000 m
gs 1 -1 sc (W) col0 sh gr
%  w 
/Symbol ff 500.00 scf sf
15975 5400 m
gs 1 -1 sc (W) col0 sh gr
%  w 
/Symbol ff 500.00 scf sf
16650 6600 m
gs 1 -1 sc (W) col0 sh gr
% Polyline
 [45] 0 sd
n 1800 2400 m 2400 2400 l 2400 3000 l 1800 3000 l
 cp gs col0 s gr  [] 0 sd
% Polyline
 [60] 0 sd
n 1800 1800 m 7800 1800 l 7800 7800 l 1800 7800 l
 cp gs col0 s gr  [] 0 sd
% Polyline
60.000 slw
 [15 45] 45 sd
n 1200 2400 m 7200 2400 l 7200 8400 l 1200 8400 l
 cp gs col0 s gr  [] 0 sd
% here ends figure;
pagefooter
showpage
%%Trailer
end
%EOF
