%!PS-Adobe-3.0 EPSF-3.0
%%Creator: MATLAB, The MathWorks, Inc. Version 7.14.0.739 (R2012a). Operating System: Linux 3.0.74-0.6.8-default #1 SMP Wed May 15 07:26:33 UTC 2013 (5e244d7) x86_64.
%%Title: ./B0_K.eps
%%CreationDate: 05/25/2014  18:22:33
%%DocumentNeededFonts: Helvetica
%%DocumentProcessColors: Cyan Magenta Yellow Black
%%LanguageLevel: 2
%%Pages: 1
%%BoundingBox:    56   198   550   607
%%EndComments

%%BeginProlog
% MathWorks dictionary
/MathWorks 160 dict begin
% definition operators
/bdef {bind def} bind def
/ldef {load def} bind def
/xdef {exch def} bdef
/xstore {exch store} bdef
% operator abbreviations
/c  /clip ldef
/cc /concat ldef
/cp /closepath ldef
/gr /grestore ldef
/gs /gsave ldef
/mt /moveto ldef
/np /newpath ldef
/cm /currentmatrix ldef
/sm /setmatrix ldef
/rm /rmoveto ldef
/rl /rlineto ldef
/s {show newpath} bdef
/sc {setcmykcolor} bdef
/sr /setrgbcolor ldef
/sg /setgray ldef
/w /setlinewidth ldef
/j /setlinejoin ldef
/cap /setlinecap ldef
/rc {rectclip} bdef
/rf {rectfill} bdef
% page state control
/pgsv () def
/bpage {/pgsv save def} bdef
/epage {pgsv restore} bdef
/bplot /gsave ldef
/eplot {stroke grestore} bdef
% orientation switch
/portraitMode 0 def /landscapeMode 1 def /rotateMode 2 def
% coordinate system mappings
/dpi2point 0 def
% font control
/FontSize 0 def
/FMS {/FontSize xstore findfont [FontSize 0 0 FontSize neg 0 0]
  makefont setfont} bdef
/reencode {exch dup where {pop load} {pop StandardEncoding} ifelse
  exch dup 3 1 roll findfont dup length dict begin
  { 1 index /FID ne {def}{pop pop} ifelse } forall
  /Encoding exch def currentdict end definefont pop} bdef
/isroman {findfont /CharStrings get /Agrave known} bdef
/FMSR {3 1 roll 1 index dup isroman {reencode} {pop pop} ifelse
  exch FMS} bdef
/csm {1 dpi2point div -1 dpi2point div scale neg translate
 dup landscapeMode eq {pop -90 rotate}
  {rotateMode eq {90 rotate} if} ifelse} bdef
% line types: solid, dotted, dashed, dotdash
/SO { [] 0 setdash } bdef
/DO { [.5 dpi2point mul 4 dpi2point mul] 0 setdash } bdef
/DA { [6 dpi2point mul] 0 setdash } bdef
/DD { [.5 dpi2point mul 4 dpi2point mul 6 dpi2point mul 4
  dpi2point mul] 0 setdash } bdef
% macros for lines and objects
/L {lineto stroke} bdef
/MP {3 1 roll moveto 1 sub {rlineto} repeat} bdef
/AP {{rlineto} repeat} bdef
/PDlw -1 def
/W {/PDlw currentlinewidth def setlinewidth} def
/PP {closepath eofill} bdef
/DP {closepath stroke} bdef
/MR {4 -2 roll moveto dup  0 exch rlineto exch 0 rlineto
  neg 0 exch rlineto closepath} bdef
/FR {MR stroke} bdef
/PR {MR fill} bdef
/L1i {{currentfile picstr readhexstring pop} image} bdef
/tMatrix matrix def
/MakeOval {newpath tMatrix currentmatrix pop translate scale
0 0 1 0 360 arc tMatrix setmatrix} bdef
/FO {MakeOval stroke} bdef
/PO {MakeOval fill} bdef
/PD {currentlinewidth 2 div 0 360 arc fill
   PDlw -1 eq not {PDlw w /PDlw -1 def} if} def
/FA {newpath tMatrix currentmatrix pop translate scale
  0 0 1 5 -2 roll arc tMatrix setmatrix stroke} bdef
/PA {newpath tMatrix currentmatrix pop	translate 0 0 moveto scale
  0 0 1 5 -2 roll arc closepath tMatrix setmatrix fill} bdef
/FAn {newpath tMatrix currentmatrix pop translate scale
  0 0 1 5 -2 roll arcn tMatrix setmatrix stroke} bdef
/PAn {newpath tMatrix currentmatrix pop translate 0 0 moveto scale
  0 0 1 5 -2 roll arcn closepath tMatrix setmatrix fill} bdef
/vradius 0 def /hradius 0 def /lry 0 def
/lrx 0 def /uly 0 def /ulx 0 def /rad 0 def
/MRR {/vradius xdef /hradius xdef /lry xdef /lrx xdef /uly xdef
  /ulx xdef newpath tMatrix currentmatrix pop ulx hradius add uly
  vradius add translate hradius vradius scale 0 0 1 180 270 arc 
  tMatrix setmatrix lrx hradius sub uly vradius add translate
  hradius vradius scale 0 0 1 270 360 arc tMatrix setmatrix
  lrx hradius sub lry vradius sub translate hradius vradius scale
  0 0 1 0 90 arc tMatrix setmatrix ulx hradius add lry vradius sub
  translate hradius vradius scale 0 0 1 90 180 arc tMatrix setmatrix
  closepath} bdef
/FRR {MRR stroke } bdef
/PRR {MRR fill } bdef
/MlrRR {/lry xdef /lrx xdef /uly xdef /ulx xdef /rad lry uly sub 2 div def
  newpath tMatrix currentmatrix pop ulx rad add uly rad add translate
  rad rad scale 0 0 1 90 270 arc tMatrix setmatrix lrx rad sub lry rad
  sub translate rad rad scale 0 0 1 270 90 arc tMatrix setmatrix
  closepath} bdef
/FlrRR {MlrRR stroke } bdef
/PlrRR {MlrRR fill } bdef
/MtbRR {/lry xdef /lrx xdef /uly xdef /ulx xdef /rad lrx ulx sub 2 div def
  newpath tMatrix currentmatrix pop ulx rad add uly rad add translate
  rad rad scale 0 0 1 180 360 arc tMatrix setmatrix lrx rad sub lry rad
  sub translate rad rad scale 0 0 1 0 180 arc tMatrix setmatrix
  closepath} bdef
/FtbRR {MtbRR stroke } bdef
/PtbRR {MtbRR fill } bdef
/stri 6 array def /dtri 6 array def
/smat 6 array def /dmat 6 array def
/tmat1 6 array def /tmat2 6 array def /dif 3 array def
/asub {/ind2 exch def /ind1 exch def dup dup
  ind1 get exch ind2 get sub exch } bdef
/tri_to_matrix {
  2 0 asub 3 1 asub 4 0 asub 5 1 asub
  dup 0 get exch 1 get 7 -1 roll astore } bdef
/compute_transform {
  dmat dtri tri_to_matrix tmat1 invertmatrix 
  smat stri tri_to_matrix tmat2 concatmatrix } bdef
/ds {stri astore pop} bdef
/dt {dtri astore pop} bdef
/db {2 copy /cols xdef /rows xdef mul dup 3 mul string
  currentfile 
  3 index 0 eq {/ASCIIHexDecode filter}
  {/ASCII85Decode filter 3 index 2 eq {/RunLengthDecode filter} if }
  ifelse exch readstring pop
  dup 0 3 index getinterval /rbmap xdef
  dup 2 index dup getinterval /gbmap xdef
  1 index dup 2 mul exch getinterval /bbmap xdef pop pop}bdef
/it {gs np dtri aload pop moveto lineto lineto cp c
  cols rows 8 compute_transform 
  rbmap gbmap bbmap true 3 colorimage gr}bdef
/il {newpath moveto lineto stroke}bdef
currentdict end def
%%EndProlog

%%BeginSetup
MathWorks begin

0 cap

end
%%EndSetup

%%Page: 1 1
%%BeginPageSetup
%%PageBoundingBox:    56   198   550   607
MathWorks begin
bpage
%%EndPageSetup

%%BeginObject: obj1
bplot

/dpi2point 12 def
portraitMode 0216 7344 csm

  459    56  5932  4902 rc
85 dict begin %Colortable dictionary
/c0 { 0.000000 0.000000 0.000000 sr} bdef
/c1 { 1.000000 1.000000 1.000000 sr} bdef
/c2 { 0.900000 0.000000 0.000000 sr} bdef
/c3 { 0.000000 0.820000 0.000000 sr} bdef
/c4 { 0.000000 0.000000 0.800000 sr} bdef
/c5 { 0.910000 0.820000 0.320000 sr} bdef
/c6 { 1.000000 0.260000 0.820000 sr} bdef
/c7 { 0.000000 0.820000 0.820000 sr} bdef
c0
1 j
1 sg
   0    0 6917 5190 rf
6 w
0 4229 5360 0 0 -4229 899 4618 4 MP
PP
-5360 0 0 4229 5360 0 0 -4229 899 4618 5 MP stroke
4 w
DO
SO
6 w
0 sg
 899 4618 mt 6259 4618 L
 899  389 mt 6259  389 L
 899 4618 mt  899  389 L
6259 4618 mt 6259  389 L
 899 4618 mt 6259 4618 L
 899 4618 mt  899  389 L
 899 4618 mt  899 4564 L
 899  389 mt  899  442 L
%%IncludeResource: font Helvetica
/Helvetica /ISOLatin1Encoding 120 FMSR

 816 4763 mt 
(2.5) s
1569 4618 mt 1569 4564 L
1569  389 mt 1569  442 L
1536 4763 mt 
(3) s
2239 4618 mt 2239 4564 L
2239  389 mt 2239  442 L
2156 4763 mt 
(3.5) s
2909 4618 mt 2909 4564 L
2909  389 mt 2909  442 L
2876 4763 mt 
(4) s
3579 4618 mt 3579 4564 L
3579  389 mt 3579  442 L
3496 4763 mt 
(4.5) s
4249 4618 mt 4249 4564 L
4249  389 mt 4249  442 L
4216 4763 mt 
(5) s
4919 4618 mt 4919 4564 L
4919  389 mt 4919  442 L
4836 4763 mt 
(5.5) s
5589 4618 mt 5589 4564 L
5589  389 mt 5589  442 L
5556 4763 mt 
(6) s
6259 4618 mt 6259 4564 L
6259  389 mt 6259  442 L
6176 4763 mt 
(6.5) s
 899 4618 mt  952 4618 L
6259 4618 mt 6205 4618 L
 798 4662 mt 
(0) s
 899 4233 mt  952 4233 L
6259 4233 mt 6205 4233 L
 798 4277 mt 
(1) s
 899 3849 mt  952 3849 L
6259 3849 mt 6205 3849 L
 798 3893 mt 
(2) s
 899 3464 mt  952 3464 L
6259 3464 mt 6205 3464 L
 798 3508 mt 
(3) s
 899 3080 mt  952 3080 L
6259 3080 mt 6205 3080 L
 798 3124 mt 
(4) s
 899 2695 mt  952 2695 L
6259 2695 mt 6205 2695 L
 798 2739 mt 
(5) s
 899 2311 mt  952 2311 L
6259 2311 mt 6205 2311 L
 798 2355 mt 
(6) s
 899 1926 mt  952 1926 L
6259 1926 mt 6205 1926 L
 798 1970 mt 
(7) s
 899 1542 mt  952 1542 L
6259 1542 mt 6205 1542 L
 798 1586 mt 
(8) s
 899 1157 mt  952 1157 L
6259 1157 mt 6205 1157 L
 798 1201 mt 
(9) s
 899  773 mt  952  773 L
6259  773 mt 6205  773 L
 731  817 mt 
(10) s
 899  389 mt  952  389 L
6259  389 mt 6205  389 L
 731  433 mt 
(11) s
 899 4618 mt 6259 4618 L
 899  389 mt 6259  389 L
 899 4618 mt  899  389 L
6259 4618 mt 6259  389 L
gs 899 389 5361 4230 rc
gr

/c8 { 0.000000 0.000000 1.000000 sr} bdef
c8
4213 3464 mt 4285 3464 L
4249 3428 mt 4249 3500 L
4224 3439 mt 4274 3489 L
4274 3439 mt 4224 3489 L
gs 899 389 5361 4230 rc
gr

/c9 { 1.000000 0.000000 0.000000 sr} bdef
c9
  36   36 1569 4233 FO
gs 899 389 5361 4230 rc
gr

  36   36 1569 3849 FO
gs 899 389 5361 4230 rc
gr

  36   36 2909 3464 FO
gs 899 389 5361 4230 rc
gr

  36   36 4249 3080 FO
gs 899 389 5361 4230 rc
gr

  36   36 5589 2695 FO
gs 899 389 5361 4230 rc
gr

c8
5553 1157 mt 5625 1157 L
5589 1121 mt 5589 1193 L
5564 1132 mt 5614 1182 L
5614 1132 mt 5564 1182 L
gs 899 389 5361 4230 rc
gr

4213 2311 mt 4285 2311 L
4249 2275 mt 4249 2347 L
4224 2286 mt 4274 2336 L
4274 2286 mt 4224 2336 L
gs 899 389 5361 4230 rc
gr

2873 3464 mt 2945 3464 L
2909 3428 mt 2909 3500 L
2884 3439 mt 2934 3489 L
2934 3439 mt 2884 3489 L
gs 899 389 5361 4230 rc
gr

5553  773 mt 5625  773 L
5589  737 mt 5589  809 L
5564  748 mt 5614  798 L
5614  748 mt 5564  798 L
gs 899 389 5361 4230 rc
gr

4213 2695 mt 4285 2695 L
4249 2659 mt 4249 2731 L
4224 2670 mt 4274 2720 L
4274 2670 mt 4224 2720 L
gs 899 389 5361 4230 rc
gr

2873 3464 mt 2945 3464 L
2909 3428 mt 2909 3500 L
2884 3439 mt 2934 3489 L
2934 3439 mt 2884 3489 L
gs 899 389 5361 4230 rc
gr

5553 1157 mt 5625 1157 L
5589 1121 mt 5589 1193 L
5564 1132 mt 5614 1182 L
5614 1132 mt 5564 1182 L
gs 899 389 5361 4230 rc
gr

4213 3080 mt 4285 3080 L
4249 3044 mt 4249 3116 L
4224 3055 mt 4274 3105 L
4274 3055 mt 4224 3105 L
gs 899 389 5361 4230 rc
gr

2873 3080 mt 2945 3080 L
2909 3044 mt 2909 3116 L
2884 3055 mt 2934 3105 L
2934 3055 mt 2884 3105 L
gs 899 389 5361 4230 rc
gr

0 sg
 595 2614 mt  -90 rotate
(NB) s
90 rotate
%%IncludeResource: font Helvetica
/Helvetica /ISOLatin1Encoding 96 FMSR

 655 2448 mt  -90 rotate
(0) s
90 rotate
%%IncludeResource: font Helvetica
/Helvetica /ISOLatin1Encoding 120 FMSR

2987 4906 mt 
(K with error ratio < 1.1) s
2591  240 mt 
(K vs, NB) s
%%IncludeResource: font Helvetica
/Helvetica /ISOLatin1Encoding 96 FMSR

3056  300 mt 
(0) s
%%IncludeResource: font Helvetica
/Helvetica /ISOLatin1Encoding 120 FMSR

3109  240 mt 
( vs. K with error ration < 1.1) s
 882 4661 mt 
( ) s
6243  431 mt 
( ) s
1 sg
0 334 2072 0 0 -334 959 783 4 MP
PP
-2072 0 0 334 2072 0 0 -334 959 783 5 MP stroke
4 w
DO
SO
6 w
0 sg
 959  783 mt 3031  783 L
 959  449 mt 3031  449 L
 959  783 mt  959  449 L
3031  783 mt 3031  449 L
 959  783 mt 3031  783 L
 959  783 mt  959  449 L
 959  783 mt 3031  783 L
 959  449 mt 3031  449 L
 959  783 mt  959  449 L
3031  783 mt 3031  449 L
1430  584 mt 
(NB = A + B*\(K-i\)) s
gs 959 449 2073 335 rc
gs 1139 468 147 147 rc
c8
1176  541 mt 1248  541 L
1212  505 mt 1212  577 L
1187  516 mt 1237  566 L
1237  516 mt 1187  566 L
gr

c8
gr

c8
0 sg
1430  733 mt 
(Maximum SR buffer schedual) s
gs 959 449 2073 335 rc
gs 1139 617 147 147 rc
c9
  36   36 1212  690 FO
gr

c9
gr

c9

end %%Color Dict

eplot
%%EndObject

epage
end

showpage

%%Trailer
%%EOF
