%!PS-Adobe-3.0 EPSF-3.0
%%Creator: MATLAB, The MathWorks, Inc. Version 7.14.0.739 (R2012a). Operating System: Linux 3.0.74-0.6.8-default #1 SMP Wed May 15 07:26:33 UTC 2013 (5e244d7) x86_64.
%%Title: ./weak_scaling_edison.eps
%%CreationDate: 05/21/2014  14:06:20
%%DocumentNeededFonts: Helvetica
%%DocumentProcessColors: Cyan Magenta Yellow Black
%%LanguageLevel: 2
%%Pages: 1
%%BoundingBox:    40   191   562   613
%%EndComments

%%BeginProlog
% MathWorks dictionary
/MathWorks 160 dict begin
% definition operators
/bdef {bind def} bind def
/ldef {load def} bind def
/xdef {exch def} bdef
/xstore {exch store} bdef
% operator abbreviations
/c  /clip ldef
/cc /concat ldef
/cp /closepath ldef
/gr /grestore ldef
/gs /gsave ldef
/mt /moveto ldef
/np /newpath ldef
/cm /currentmatrix ldef
/sm /setmatrix ldef
/rm /rmoveto ldef
/rl /rlineto ldef
/s {show newpath} bdef
/sc {setcmykcolor} bdef
/sr /setrgbcolor ldef
/sg /setgray ldef
/w /setlinewidth ldef
/j /setlinejoin ldef
/cap /setlinecap ldef
/rc {rectclip} bdef
/rf {rectfill} bdef
% page state control
/pgsv () def
/bpage {/pgsv save def} bdef
/epage {pgsv restore} bdef
/bplot /gsave ldef
/eplot {stroke grestore} bdef
% orientation switch
/portraitMode 0 def /landscapeMode 1 def /rotateMode 2 def
% coordinate system mappings
/dpi2point 0 def
% font control
/FontSize 0 def
/FMS {/FontSize xstore findfont [FontSize 0 0 FontSize neg 0 0]
  makefont setfont} bdef
/reencode {exch dup where {pop load} {pop StandardEncoding} ifelse
  exch dup 3 1 roll findfont dup length dict begin
  { 1 index /FID ne {def}{pop pop} ifelse } forall
  /Encoding exch def currentdict end definefont pop} bdef
/isroman {findfont /CharStrings get /Agrave known} bdef
/FMSR {3 1 roll 1 index dup isroman {reencode} {pop pop} ifelse
  exch FMS} bdef
/csm {1 dpi2point div -1 dpi2point div scale neg translate
 dup landscapeMode eq {pop -90 rotate}
  {rotateMode eq {90 rotate} if} ifelse} bdef
% line types: solid, dotted, dashed, dotdash
/SO { [] 0 setdash } bdef
/DO { [.5 dpi2point mul 4 dpi2point mul] 0 setdash } bdef
/DA { [6 dpi2point mul] 0 setdash } bdef
/DD { [.5 dpi2point mul 4 dpi2point mul 6 dpi2point mul 4
  dpi2point mul] 0 setdash } bdef
% macros for lines and objects
/L {lineto stroke} bdef
/MP {3 1 roll moveto 1 sub {rlineto} repeat} bdef
/AP {{rlineto} repeat} bdef
/PDlw -1 def
/W {/PDlw currentlinewidth def setlinewidth} def
/PP {closepath eofill} bdef
/DP {closepath stroke} bdef
/MR {4 -2 roll moveto dup  0 exch rlineto exch 0 rlineto
  neg 0 exch rlineto closepath} bdef
/FR {MR stroke} bdef
/PR {MR fill} bdef
/L1i {{currentfile picstr readhexstring pop} image} bdef
/tMatrix matrix def
/MakeOval {newpath tMatrix currentmatrix pop translate scale
0 0 1 0 360 arc tMatrix setmatrix} bdef
/FO {MakeOval stroke} bdef
/PO {MakeOval fill} bdef
/PD {currentlinewidth 2 div 0 360 arc fill
   PDlw -1 eq not {PDlw w /PDlw -1 def} if} def
/FA {newpath tMatrix currentmatrix pop translate scale
  0 0 1 5 -2 roll arc tMatrix setmatrix stroke} bdef
/PA {newpath tMatrix currentmatrix pop	translate 0 0 moveto scale
  0 0 1 5 -2 roll arc closepath tMatrix setmatrix fill} bdef
/FAn {newpath tMatrix currentmatrix pop translate scale
  0 0 1 5 -2 roll arcn tMatrix setmatrix stroke} bdef
/PAn {newpath tMatrix currentmatrix pop translate 0 0 moveto scale
  0 0 1 5 -2 roll arcn closepath tMatrix setmatrix fill} bdef
/vradius 0 def /hradius 0 def /lry 0 def
/lrx 0 def /uly 0 def /ulx 0 def /rad 0 def
/MRR {/vradius xdef /hradius xdef /lry xdef /lrx xdef /uly xdef
  /ulx xdef newpath tMatrix currentmatrix pop ulx hradius add uly
  vradius add translate hradius vradius scale 0 0 1 180 270 arc 
  tMatrix setmatrix lrx hradius sub uly vradius add translate
  hradius vradius scale 0 0 1 270 360 arc tMatrix setmatrix
  lrx hradius sub lry vradius sub translate hradius vradius scale
  0 0 1 0 90 arc tMatrix setmatrix ulx hradius add lry vradius sub
  translate hradius vradius scale 0 0 1 90 180 arc tMatrix setmatrix
  closepath} bdef
/FRR {MRR stroke } bdef
/PRR {MRR fill } bdef
/MlrRR {/lry xdef /lrx xdef /uly xdef /ulx xdef /rad lry uly sub 2 div def
  newpath tMatrix currentmatrix pop ulx rad add uly rad add translate
  rad rad scale 0 0 1 90 270 arc tMatrix setmatrix lrx rad sub lry rad
  sub translate rad rad scale 0 0 1 270 90 arc tMatrix setmatrix
  closepath} bdef
/FlrRR {MlrRR stroke } bdef
/PlrRR {MlrRR fill } bdef
/MtbRR {/lry xdef /lrx xdef /uly xdef /ulx xdef /rad lrx ulx sub 2 div def
  newpath tMatrix currentmatrix pop ulx rad add uly rad add translate
  rad rad scale 0 0 1 180 360 arc tMatrix setmatrix lrx rad sub lry rad
  sub translate rad rad scale 0 0 1 0 180 arc tMatrix setmatrix
  closepath} bdef
/FtbRR {MtbRR stroke } bdef
/PtbRR {MtbRR fill } bdef
/stri 6 array def /dtri 6 array def
/smat 6 array def /dmat 6 array def
/tmat1 6 array def /tmat2 6 array def /dif 3 array def
/asub {/ind2 exch def /ind1 exch def dup dup
  ind1 get exch ind2 get sub exch } bdef
/tri_to_matrix {
  2 0 asub 3 1 asub 4 0 asub 5 1 asub
  dup 0 get exch 1 get 7 -1 roll astore } bdef
/compute_transform {
  dmat dtri tri_to_matrix tmat1 invertmatrix 
  smat stri tri_to_matrix tmat2 concatmatrix } bdef
/ds {stri astore pop} bdef
/dt {dtri astore pop} bdef
/db {2 copy /cols xdef /rows xdef mul dup 3 mul string
  currentfile 
  3 index 0 eq {/ASCIIHexDecode filter}
  {/ASCII85Decode filter 3 index 2 eq {/RunLengthDecode filter} if }
  ifelse exch readstring pop
  dup 0 3 index getinterval /rbmap xdef
  dup 2 index dup getinterval /gbmap xdef
  1 index dup 2 mul exch getinterval /bbmap xdef pop pop}bdef
/it {gs np dtri aload pop moveto lineto lineto cp c
  cols rows 8 compute_transform 
  rbmap gbmap bbmap true 3 colorimage gr}bdef
/il {newpath moveto lineto stroke}bdef
currentdict end def
%%EndProlog

%%BeginSetup
MathWorks begin

0 cap

end
%%EndSetup

%%Page: 1 1
%%BeginPageSetup
%%PageBoundingBox:    40   191   562   613
MathWorks begin
bpage
%%EndPageSetup

%%BeginObject: obj1
bplot

/dpi2point 12 def
portraitMode 0216 7344 csm

  267   -22  6272  5068 rc
88 dict begin %Colortable dictionary
/c0 { 0.000000 0.000000 0.000000 sr} bdef
/c1 { 1.000000 1.000000 1.000000 sr} bdef
/c2 { 0.900000 0.000000 0.000000 sr} bdef
/c3 { 0.000000 0.820000 0.000000 sr} bdef
/c4 { 0.000000 0.000000 0.800000 sr} bdef
/c5 { 0.910000 0.820000 0.320000 sr} bdef
/c6 { 1.000000 0.260000 0.820000 sr} bdef
/c7 { 0.000000 0.820000 0.820000 sr} bdef
c0
1 j
1 sg
   0    0 6914 5188 rf
6 w
0 4227 5357 0 0 -4227 899 4616 4 MP
PP
-5357 0 0 4227 5357 0 0 -4227 899 4616 5 MP stroke
4 w
DO
0 sg
 899 4616 mt  899  389 L
 899  389 mt  899  389 L
2238 4616 mt 2238  389 L
2238  389 mt 2238  389 L
3577 4616 mt 3577  389 L
3577  389 mt 3577  389 L
4916 4616 mt 4916  389 L
4916  389 mt 4916  389 L
6256 4616 mt 6256  389 L
6256  389 mt 6256  389 L
 899 4616 mt 6256 4616 L
6256 4616 mt 6256 4616 L
 899 4081 mt 6256 4081 L
6256 4081 mt 6256 4081 L
 899 3546 mt 6256 3546 L
6256 3546 mt 6256 3546 L
 899 3011 mt 6256 3011 L
6256 3011 mt 6256 3011 L
 899 2476 mt 6256 2476 L
6256 2476 mt 6256 2476 L
 899 1942 mt 6256 1942 L
6256 1942 mt 6256 1942 L
 899 1407 mt 6256 1407 L
6256 1407 mt 6256 1407 L
 899  872 mt 6256  872 L
6256  872 mt 6256  872 L
SO
6 w
 899 4616 mt 6256 4616 L
 899  389 mt 6256  389 L
 899 4616 mt  899  389 L
6256 4616 mt 6256  389 L
 899 4616 mt 6256 4616 L
 899 4616 mt  899  389 L
 899 4616 mt  899 4589 L
 899  389 mt  899  415 L
DO
 899 4616 mt  899  389 L
 899  389 mt  899  389 L
SO
 899 4616 mt  899 4562 L
 899  389 mt  899  442 L
%%IncludeResource: font Helvetica
/Helvetica /ISOLatin1Encoding 168 FMSR

 806 4806 mt 
(16) s
1345 4616 mt 1345 4589 L
1345  389 mt 1345  415 L
DO
1345 4616 mt 1345  389 L
1345  389 mt 1345  389 L
SO
1606 4616 mt 1606 4589 L
1606  389 mt 1606  415 L
DO
1606 4616 mt 1606  389 L
1606  389 mt 1606  389 L
SO
1791 4616 mt 1791 4589 L
1791  389 mt 1791  415 L
DO
1791 4616 mt 1791  389 L
1791  389 mt 1791  389 L
SO
1935 4616 mt 1935 4589 L
1935  389 mt 1935  415 L
DO
1935 4616 mt 1935  389 L
1935  389 mt 1935  389 L
SO
2052 4616 mt 2052 4589 L
2052  389 mt 2052  415 L
DO
2052 4616 mt 2052  389 L
2052  389 mt 2052  389 L
SO
2152 4616 mt 2152 4589 L
2152  389 mt 2152  415 L
DO
2152 4616 mt 2152  389 L
2152  389 mt 2152  389 L
SO
2238 4616 mt 2238 4589 L
2238  389 mt 2238  415 L
DO
2238 4616 mt 2238  389 L
2238  389 mt 2238  389 L
SO
2238 4616 mt 2238 4589 L
2238  389 mt 2238  415 L
DO
2238 4616 mt 2238  389 L
2238  389 mt 2238  389 L
SO
2238 4616 mt 2238 4589 L
2238  389 mt 2238  415 L
DO
2238 4616 mt 2238  389 L
2238  389 mt 2238  389 L
SO
2238 4616 mt 2238 4562 L
2238  389 mt 2238  442 L
2098 4806 mt 
(128) s
2684 4616 mt 2684 4589 L
2684  389 mt 2684  415 L
DO
2684 4616 mt 2684  389 L
2684  389 mt 2684  389 L
SO
2945 4616 mt 2945 4589 L
2945  389 mt 2945  415 L
DO
2945 4616 mt 2945  389 L
2945  389 mt 2945  389 L
SO
3131 4616 mt 3131 4589 L
3131  389 mt 3131  415 L
DO
3131 4616 mt 3131  389 L
3131  389 mt 3131  389 L
SO
3274 4616 mt 3274 4589 L
3274  389 mt 3274  415 L
DO
3274 4616 mt 3274  389 L
3274  389 mt 3274  389 L
SO
3392 4616 mt 3392 4589 L
3392  389 mt 3392  415 L
DO
3392 4616 mt 3392  389 L
3392  389 mt 3392  389 L
SO
3491 4616 mt 3491 4589 L
3491  389 mt 3491  415 L
DO
3491 4616 mt 3491  389 L
3491  389 mt 3491  389 L
SO
3577 4616 mt 3577 4589 L
3577  389 mt 3577  415 L
DO
3577 4616 mt 3577  389 L
3577  389 mt 3577  389 L
SO
3577 4616 mt 3577 4589 L
3577  389 mt 3577  415 L
DO
3577 4616 mt 3577  389 L
3577  389 mt 3577  389 L
SO
3577 4616 mt 3577 4589 L
3577  389 mt 3577  415 L
DO
3577 4616 mt 3577  389 L
3577  389 mt 3577  389 L
SO
3577 4616 mt 3577 4562 L
3577  389 mt 3577  442 L
3391 4806 mt 
(1024) s
4023 4616 mt 4023 4589 L
4023  389 mt 4023  415 L
DO
4023 4616 mt 4023  389 L
4023  389 mt 4023  389 L
SO
4285 4616 mt 4285 4589 L
4285  389 mt 4285  415 L
DO
4285 4616 mt 4285  389 L
4285  389 mt 4285  389 L
SO
4470 4616 mt 4470 4589 L
4470  389 mt 4470  415 L
DO
4470 4616 mt 4470  389 L
4470  389 mt 4470  389 L
SO
4614 4616 mt 4614 4589 L
4614  389 mt 4614  415 L
DO
4614 4616 mt 4614  389 L
4614  389 mt 4614  389 L
SO
4731 4616 mt 4731 4589 L
4731  389 mt 4731  415 L
DO
4731 4616 mt 4731  389 L
4731  389 mt 4731  389 L
SO
4830 4616 mt 4830 4589 L
4830  389 mt 4830  415 L
DO
4830 4616 mt 4830  389 L
4830  389 mt 4830  389 L
SO
4916 4616 mt 4916 4589 L
4916  389 mt 4916  415 L
DO
4916 4616 mt 4916  389 L
4916  389 mt 4916  389 L
SO
4916 4616 mt 4916 4589 L
4916  389 mt 4916  415 L
DO
4916 4616 mt 4916  389 L
4916  389 mt 4916  389 L
SO
4916 4616 mt 4916 4589 L
4916  389 mt 4916  415 L
DO
4916 4616 mt 4916  389 L
4916  389 mt 4916  389 L
SO
4916 4616 mt 4916 4562 L
4916  389 mt 4916  442 L
4730 4806 mt 
(8192) s
5363 4616 mt 5363 4589 L
5363  389 mt 5363  415 L
DO
5363 4616 mt 5363  389 L
5363  389 mt 5363  389 L
SO
5624 4616 mt 5624 4589 L
5624  389 mt 5624  415 L
DO
5624 4616 mt 5624  389 L
5624  389 mt 5624  389 L
SO
5809 4616 mt 5809 4589 L
5809  389 mt 5809  415 L
DO
5809 4616 mt 5809  389 L
5809  389 mt 5809  389 L
SO
5953 4616 mt 5953 4589 L
5953  389 mt 5953  415 L
DO
5953 4616 mt 5953  389 L
5953  389 mt 5953  389 L
SO
6070 4616 mt 6070 4589 L
6070  389 mt 6070  415 L
DO
6070 4616 mt 6070  389 L
6070  389 mt 6070  389 L
SO
6170 4616 mt 6170 4589 L
6170  389 mt 6170  415 L
DO
6170 4616 mt 6170  389 L
6170  389 mt 6170  389 L
SO
6255 4616 mt 6255 4589 L
6255  389 mt 6255  415 L
DO
6255 4616 mt 6255  389 L
6255  389 mt 6255  389 L
SO
6256 4616 mt 6256 4589 L
6256  389 mt 6256  415 L
DO
6256 4616 mt 6256  389 L
6256  389 mt 6256  389 L
SO
6256 4616 mt 6256 4589 L
6256  389 mt 6256  415 L
DO
6256 4616 mt 6256  389 L
6256  389 mt 6256  389 L
SO
6256 4616 mt 6256 4562 L
6256  389 mt 6256  442 L
6023 4806 mt 
(65536) s
 899 4616 mt  952 4616 L
6256 4616 mt 6202 4616 L
 771 4678 mt 
(0) s
 899 4081 mt  952 4081 L
6256 4081 mt 6202 4081 L
 771 4143 mt 
(5) s
 899 3546 mt  952 3546 L
6256 3546 mt 6202 3546 L
 678 3608 mt 
(10) s
 899 3011 mt  952 3011 L
6256 3011 mt 6202 3011 L
 678 3073 mt 
(15) s
 899 2476 mt  952 2476 L
6256 2476 mt 6202 2476 L
 678 2538 mt 
(20) s
 899 1942 mt  952 1942 L
6256 1942 mt 6202 1942 L
 678 2004 mt 
(25) s
 899 1407 mt  952 1407 L
6256 1407 mt 6202 1407 L
 678 1469 mt 
(30) s
 899  872 mt  952  872 L
6256  872 mt 6202  872 L
 678  934 mt 
(35) s
 899 4616 mt 6256 4616 L
 899  389 mt 6256  389 L
 899 4616 mt  899  389 L
6256 4616 mt 6256  389 L
gs 899 389 5358 4228 rc
DD
36 w
/c8 { 1.000000 0.000000 0.000000 sr} bdef
c8
1340 -75 1339 -9 1339 -10 1339 -4 899 4139 5 MP stroke
gr

36 w
c8
DD
SO
 863 4139 mt  935 4139 L
 899 4103 mt  899 4175 L
2202 4135 mt 2274 4135 L
2238 4099 mt 2238 4171 L
3541 4125 mt 3613 4125 L
3577 4089 mt 3577 4161 L
4880 4116 mt 4952 4116 L
4916 4080 mt 4916 4152 L
6220 4041 mt 6292 4041 L
6256 4005 mt 6256 4077 L
DD
gs 899 389 5358 4228 rc
DA
/c9 { 1.000000 0.000000 1.000000 sr} bdef
c9
1340 -24 1339 -7 1339 -10 1339 -42 899 4086 5 MP stroke
gr

c9
DA
SO
 863 4086 mt  935 4086 L
 899 4050 mt  899 4122 L
2202 4044 mt 2274 4044 L
2238 4008 mt 2238 4080 L
3541 4034 mt 3613 4034 L
3577 3998 mt 3577 4070 L
4880 4027 mt 4952 4027 L
4916 3991 mt 4916 4063 L
6220 4003 mt 6292 4003 L
6256 3967 mt 6256 4039 L
 874 4061 mt  924 4111 L
 924 4061 mt  874 4111 L
2213 4019 mt 2263 4069 L
2263 4019 mt 2213 4069 L
3552 4009 mt 3602 4059 L
3602 4009 mt 3552 4059 L
4891 4002 mt 4941 4052 L
4941 4002 mt 4891 4052 L
6231 3978 mt 6281 4028 L
6281 3978 mt 6231 4028 L
DA
gs 899 389 5358 4228 rc
/c10 { 0.000000 1.000000 0.000000 sr} bdef
c10
1340 -129 1339 -6 1339 -43 1339 -30 899 2475 5 MP stroke
gr

c10
SO
 863 2475 mt  935 2475 L
 899 2439 mt  899 2511 L
2202 2445 mt 2274 2445 L
2238 2409 mt 2238 2481 L
3541 2402 mt 3613 2402 L
3577 2366 mt 3577 2438 L
4880 2396 mt 4952 2396 L
4916 2360 mt 4916 2432 L
6220 2267 mt 6292 2267 L
6256 2231 mt 6256 2303 L
 874 2450 mt  924 2500 L
 924 2450 mt  874 2500 L
2213 2420 mt 2263 2470 L
2263 2420 mt 2213 2470 L
3552 2377 mt 3602 2427 L
3602 2377 mt 3552 2427 L
4891 2371 mt 4941 2421 L
4941 2371 mt 4891 2421 L
6231 2242 mt 6281 2292 L
6281 2242 mt 6231 2292 L
DA
gs 899 389 5358 4228 rc
DD
/c11 { 0.000000 0.000000 1.000000 sr} bdef
c11
1340 -488 1339 -205 1339 -178 1339 -111 899 4114 5 MP stroke
gr

c11
DD
SO
  36   36  899 4114 FO
  36   36 2238 4003 FO
  36   36 3577 3825 FO
  36   36 4916 3620 FO
  36   36 6256 3132 FO
DD
gs 899 389 5358 4228 rc
DO
0 sg
1340 -413 1339 -168 1339 -176 1339 -109 899 4109 5 MP stroke
gr

0 sg
DO
SO
 863 4109 mt  935 4109 L
 899 4073 mt  899 4145 L
2202 4000 mt 2274 4000 L
2238 3964 mt 2238 4036 L
3541 3824 mt 3613 3824 L
3577 3788 mt 3577 3860 L
4880 3656 mt 4952 3656 L
4916 3620 mt 4916 3692 L
6220 3243 mt 6292 3243 L
6256 3207 mt 6256 3279 L
 874 4084 mt  924 4134 L
 924 4084 mt  874 4134 L
2213 3975 mt 2263 4025 L
2263 3975 mt 2213 4025 L
3552 3799 mt 3602 3849 L
3602 3799 mt 3552 3849 L
4891 3631 mt 4941 3681 L
4941 3631 mt 4891 3681 L
6231 3218 mt 6281 3268 L
6281 3218 mt 6231 3268 L
DO
gs 899 389 5358 4228 rc
DA
/c12 { 0.000000 1.000000 1.000000 sr} bdef
c12
1340 -421 1339 -138 1339 -160 1339 -308 899 3825 5 MP stroke
gr

c12
DA
SO
 863 3825 mt  935 3825 L
 899 3789 mt  899 3861 L
2202 3517 mt 2274 3517 L
2238 3481 mt 2238 3553 L
3541 3357 mt 3613 3357 L
3577 3321 mt 3577 3393 L
4880 3219 mt 4952 3219 L
4916 3183 mt 4916 3255 L
6220 2798 mt 6292 2798 L
6256 2762 mt 6256 2834 L
DA
gs 899 389 5358 4228 rc
gr

0 sg
2964 4984 mt 
(# cores \(Edison\)) s
 586 2690 mt  -90 rotate
(Time) s
90 rotate
1419  257 mt 
(Solve times: Laplacian, u=\(x) s
%%IncludeResource: font Helvetica
/Helvetica /ISOLatin1Encoding 132 FMSR

3511  173 mt 
(4) s
%%IncludeResource: font Helvetica
/Helvetica /ISOLatin1Encoding 168 FMSR

3584  257 mt 
( - L) s
%%IncludeResource: font Helvetica
/Helvetica /ISOLatin1Encoding 132 FMSR

3868  173 mt 
(2) s
%%IncludeResource: font Helvetica
/Helvetica /ISOLatin1Encoding 168 FMSR

3941  257 mt 
( x) s
%%IncludeResource: font Helvetica
/Helvetica /ISOLatin1Encoding 132 FMSR

4071  173 mt 
(2) s
%%IncludeResource: font Helvetica
/Helvetica /ISOLatin1Encoding 168 FMSR

4144  257 mt 
(\), L=\(2,1,1\) \(8 solves\)) s
 876 4677 mt 
( ) s
6234  449 mt 
( ) s
SO
6 w
1 sg
0 1398 5895 0 0 -1398 302 1848 4 MP
PP
-5895 0 0 1398 5895 0 0 -1398 302 1848 5 MP stroke
4 w
DO
SO
6 w
0 sg
 302 1848 mt 6197 1848 L
 302  450 mt 6197  450 L
 302 1848 mt  302  450 L
6197 1848 mt 6197  450 L
 302 1848 mt 6197 1848 L
 302 1848 mt  302  450 L
 302 1848 mt 6197 1848 L
 302  450 mt 6197  450 L
 302 1848 mt  302  450 L
6197 1848 mt 6197  450 L
 795  670 mt 
(1 F-cycle w/ V\(2,2\), 128) s
%%IncludeResource: font Helvetica
/Helvetica /ISOLatin1Encoding 132 FMSR

2602  586 mt 
(3) s
%%IncludeResource: font Helvetica
/Helvetica /ISOLatin1Encoding 168 FMSR

2675  670 mt 
( cells/core, 8 solves - non-redundant CGS) s
gs 302 450 5896 1399 rc
DD
36 w
c8
379 0 377 593 2 MP stroke
SO
gs 457 483 221 221 rc
 531  593 mt  603  593 L
 567  557 mt  567  629 L
gr

gr

36 w
c8
0 sg
 795  918 mt 
(1 F-cycle w/ V\(2,2\), 128) s
%%IncludeResource: font Helvetica
/Helvetica /ISOLatin1Encoding 132 FMSR

2602  834 mt 
(3) s
%%IncludeResource: font Helvetica
/Helvetica /ISOLatin1Encoding 168 FMSR

2675  918 mt 
( cells/core, 8 solves - SR, non-redundant CGS) s
gs 302 450 5896 1399 rc
DA
c9
379 0 377 840 2 MP stroke
SO
gs 457 730 221 221 rc
 531  840 mt  603  840 L
 567  804 mt  567  876 L
 542  815 mt  592  865 L
 592  815 mt  542  865 L
gr

gr

c9
0 sg
 795 1166 mt 
(V\(2,2\) cycles, 128) s
%%IncludeResource: font Helvetica
/Helvetica /ISOLatin1Encoding 132 FMSR

2136 1082 mt 
(3) s
%%IncludeResource: font Helvetica
/Helvetica /ISOLatin1Encoding 168 FMSR

2209 1166 mt 
( cells, rtol=10.) s
%%IncludeResource: font Helvetica
/Helvetica /ISOLatin1Encoding 132 FMSR

3254 1082 mt 
(-4) s
%%IncludeResource: font Helvetica
/Helvetica /ISOLatin1Encoding 168 FMSR

3404 1166 mt 
(, 8 solves, non-redundant CGS) s
gs 302 450 5896 1399 rc
DA
c10
379 0 377 1088 2 MP stroke
SO
gs 457 978 221 221 rc
 531 1088 mt  603 1088 L
 567 1052 mt  567 1124 L
 542 1063 mt  592 1113 L
 592 1063 mt  542 1113 L
gr

gr

c10
0 sg
 795 1376 mt 
(1 F-cycle w/ V\(2,2\), N=32/core, 512 solves - redundant CGS) s
gs 302 450 5896 1399 rc
DD
c11
379 0 377 1314 2 MP stroke
SO
gs 457 1204 221 221 rc
  36   36  567 1314 FO
gr

gr

c11
0 sg
 795 1581 mt 
(1 F-cycle w/ V\(2,2\), N=32/core, 512 solves - non-redundant \
CGS) s
gs 302 450 5896 1399 rc
DO
379 0 377 1520 2 MP stroke
SO
gs 457 1410 221 221 rc
 531 1520 mt  603 1520 L
 567 1484 mt  567 1556 L
 542 1495 mt  592 1545 L
 592 1495 mt  542 1545 L
gr

gr

 795 1787 mt 
(1 F-cycle w/ V\(2,2\), N=32/core, 512 solves - SR, non-redund\
ant CGS) s
gs 302 450 5896 1399 rc
DA
c12
379 0 377 1726 2 MP stroke
SO
gs 457 1616 221 221 rc
 531 1726 mt  603 1726 L
 567 1690 mt  567 1762 L
gr

6 w
gr

6 w
c12

end %%Color Dict

eplot
%%EndObject

epage
end

showpage

%%Trailer
%%EOF
